{
  "name": "",
  "css_prefix_text": "icon-",
  "css_use_suffix": false,
  "hinting": true,
  "units_per_em": 1000,
  "ascent": 850,
  "glyphs": [
    {
      "uid": "004882ab2d5c418c5b2060e80596279b",
      "css": "right-open-big",
      "code": 59393,
      "src": "entypo"
    },
    {
      "uid": "70370693ada58ef0a60fa0984fe8d52a",
      "css": "plus",
      "code": 59395,
      "src": "entypo"
    },
    {
      "uid": "5adef5b3275fcd874b0815a0637c5800",
      "css": "login",
      "code": 61484,
      "src": "mfglabs"
    },
    {
      "uid": "3a00327e61b997b58518bd43ed83c3df",
      "css": "login-1",
      "code": 59396,
      "src": "fontawesome"
    },
    {
      "uid": "ccc2329632396dc096bb638d4b46fb98",
      "css": "mail-alt",
      "code": 61664,
      "src": "fontawesome"
    },
    {
      "uid": "0d20938846444af8deb1920dc85a29fb",
      "css": "logout",
      "code": 59392,
      "src": "fontawesome"
    },
    {
      "uid": "2355991b4045d64b08fb82988109c0ee",
      "css": "info-circled",
      "code": 59394,
      "src": "elusive"
    },
    {
      "uid": "12d16dda691bda304e3b57d7bc0de5a9",
      "css": "lightbulb",
      "code": 59397,
      "src": "typicons"
    },
    {
      "uid": "6ad86a953a5a76086c5568366863bbca",
      "css": "torso",
      "code": 59398,
      "src": "elusive"
    },
    {
      "uid": "eedb189bc6326c685d83627f78e1c9de",
      "css": "pencil-alt",
      "code": 59399,
      "src": "iconic"
    },
    {
      "uid": "d17030afaecc1e1c22349b99f3c4992a",
      "css": "star-empty",
      "code": 59400,
      "src": "fontawesome"
    },
    {
      "uid": "474656633f79ea2f1dad59ff63f6bf07",
      "css": "star",
      "code": 59401,
      "src": "fontawesome"
    },
    {
      "uid": "f48ae54adfb27d8ada53d0fd9e34ee10",
      "css": "trash-empty",
      "code": 59402,
      "src": "fontawesome"
    },
    {
      "uid": "d35a1d35efeb784d1dc9ac18b9b6c2b6",
      "css": "pencil",
      "code": 59403,
      "src": "fontawesome"
    },
    {
      "uid": "62b0580ee8edc3a3edfbf68a47c852d5",
      "css": "pencil-1",
      "code": 59405,
      "src": "elusive"
    },
    {
      "uid": "25fc99a30fecc4021fdcae5fff5ba9ac",
      "css": "eye",
      "code": 59404,
      "src": "entypo"
    }
  ]
}